digraph finite_state_machine {
	node [shape=point,label=""] ENTRY;

	node [shape=circle];

    Template[label="State Name\nstart_timer - busy"]

    Wait[label="Wait\n0 - 0"];

	ST[label="Start Transmit\n1 - 1"];

	Trans[label="Transmitting\n0 - 1"];

    ENTRY->Wait [label="Initialization"];

    Wait->ST [label="data_wr"];

    ST->Trans

    Trans->Wait [label="timer_end"]
}