   1              		.cpu arm7tdmi
   2              		.eabi_attribute 20, 1
   3              		.eabi_attribute 21, 1
   4              		.eabi_attribute 23, 3
   5              		.eabi_attribute 24, 1
   6              		.eabi_attribute 25, 1
   7              		.eabi_attribute 26, 1
   8              		.eabi_attribute 30, 6
   9              		.eabi_attribute 34, 0
  10              		.eabi_attribute 18, 4
  11              		.file	"pio_function.c"
  12              		.text
  13              	.Ltext0:
  14              		.cfi_sections	.debug_frame
  15              		.section	.rodata
  16              		.align	2
  19              	VAL2SEG:
  20 0000 3F       		.byte	63
  21 0001 06       		.byte	6
  22 0002 5B       		.byte	91
  23 0003 4F       		.byte	79
  24 0004 66       		.byte	102
  25 0005 6D       		.byte	109
  26 0006 7D       		.byte	125
  27 0007 07       		.byte	7
  28 0008 7F       		.byte	127
  29 0009 6F       		.byte	111
  30 000a 77       		.byte	119
  31 000b 7C       		.byte	124
  32 000c 39       		.byte	57
  33 000d 5E       		.byte	94
  34 000e 79       		.byte	121
  35 000f 71       		.byte	113
  36              		.text
  37              		.align	2
  38              		.global	Switchs_init
  39              		.syntax unified
  40              		.arm
  41              		.fpu softvfp
  43              	Switchs_init:
  44              	.LFB0:
  45              		.file 1 "/home/reds/ARE/labo02/hps_pio_interface/soft/src/pio_function.c"
   1:/home/reds/ARE/labo02/hps_pio_interface/soft/src/pio_function.c **** /*****************************************************************************************
   2:/home/reds/ARE/labo02/hps_pio_interface/soft/src/pio_function.c ****  * HEIG-VD
   3:/home/reds/ARE/labo02/hps_pio_interface/soft/src/pio_function.c ****  * Haute Ecole d'Ingenerie et de Gestion du Canton de Vaud
   4:/home/reds/ARE/labo02/hps_pio_interface/soft/src/pio_function.c ****  * School of Business and Engineering in Canton de Vaud
   5:/home/reds/ARE/labo02/hps_pio_interface/soft/src/pio_function.c ****  *****************************************************************************************
   6:/home/reds/ARE/labo02/hps_pio_interface/soft/src/pio_function.c ****  * REDS Institute
   7:/home/reds/ARE/labo02/hps_pio_interface/soft/src/pio_function.c ****  * Reconfigurable Embedded Digital Systems
   8:/home/reds/ARE/labo02/hps_pio_interface/soft/src/pio_function.c ****  *****************************************************************************************
   9:/home/reds/ARE/labo02/hps_pio_interface/soft/src/pio_function.c ****  *
  10:/home/reds/ARE/labo02/hps_pio_interface/soft/src/pio_function.c ****  * File                 : pio_function.c
  11:/home/reds/ARE/labo02/hps_pio_interface/soft/src/pio_function.c ****  * Author               : 
  12:/home/reds/ARE/labo02/hps_pio_interface/soft/src/pio_function.c ****  * Date                 : 
  13:/home/reds/ARE/labo02/hps_pio_interface/soft/src/pio_function.c ****  *
  14:/home/reds/ARE/labo02/hps_pio_interface/soft/src/pio_function.c ****  * Context              : ARE lab
  15:/home/reds/ARE/labo02/hps_pio_interface/soft/src/pio_function.c ****  *
  16:/home/reds/ARE/labo02/hps_pio_interface/soft/src/pio_function.c ****  *****************************************************************************************
  17:/home/reds/ARE/labo02/hps_pio_interface/soft/src/pio_function.c ****  * Brief: Pio function
  18:/home/reds/ARE/labo02/hps_pio_interface/soft/src/pio_function.c ****  *
  19:/home/reds/ARE/labo02/hps_pio_interface/soft/src/pio_function.c ****  *****************************************************************************************
  20:/home/reds/ARE/labo02/hps_pio_interface/soft/src/pio_function.c ****  * Modifications :
  21:/home/reds/ARE/labo02/hps_pio_interface/soft/src/pio_function.c ****  * Ver    Date        Student      Comments
  22:/home/reds/ARE/labo02/hps_pio_interface/soft/src/pio_function.c ****  * 
  23:/home/reds/ARE/labo02/hps_pio_interface/soft/src/pio_function.c ****  *
  24:/home/reds/ARE/labo02/hps_pio_interface/soft/src/pio_function.c **** *****************************************************************************************/
  25:/home/reds/ARE/labo02/hps_pio_interface/soft/src/pio_function.c **** #include <stdint.h>
  26:/home/reds/ARE/labo02/hps_pio_interface/soft/src/pio_function.c **** #include <stdbool.h>
  27:/home/reds/ARE/labo02/hps_pio_interface/soft/src/pio_function.c **** #include "pio_function.h"
  28:/home/reds/ARE/labo02/hps_pio_interface/soft/src/pio_function.c **** #include "hex_val.h"
  29:/home/reds/ARE/labo02/hps_pio_interface/soft/src/pio_function.c **** 
  30:/home/reds/ARE/labo02/hps_pio_interface/soft/src/pio_function.c **** // #define CHECK_ERRORS
  31:/home/reds/ARE/labo02/hps_pio_interface/soft/src/pio_function.c **** #ifdef CHECK_ERRORS
  32:/home/reds/ARE/labo02/hps_pio_interface/soft/src/pio_function.c **** 	#include <inttypes.h>
  33:/home/reds/ARE/labo02/hps_pio_interface/soft/src/pio_function.c **** 	#include <stdio.h>
  34:/home/reds/ARE/labo02/hps_pio_interface/soft/src/pio_function.c **** #endif /* CHECK_ERRORS */
  35:/home/reds/ARE/labo02/hps_pio_interface/soft/src/pio_function.c **** 
  36:/home/reds/ARE/labo02/hps_pio_interface/soft/src/pio_function.c **** 
  37:/home/reds/ARE/labo02/hps_pio_interface/soft/src/pio_function.c **** // TO BE COMPLETE
  38:/home/reds/ARE/labo02/hps_pio_interface/soft/src/pio_function.c **** 
  39:/home/reds/ARE/labo02/hps_pio_interface/soft/src/pio_function.c **** void Switchs_init(void){
  46              		.loc 1 39 0
  47              		.cfi_startproc
  48              		@ Function supports interworking.
  49              		@ args = 0, pretend = 0, frame = 0
  50              		@ frame_needed = 1, uses_anonymous_args = 0
  51              		@ link register save eliminated.
  52 0000 04B02DE5 		str	fp, [sp, #-4]!
  53              		.cfi_def_cfa_offset 4
  54              		.cfi_offset 11, -4
  55 0004 00B08DE2 		add	fp, sp, #0
  56              		.cfi_def_cfa_register 11
  40:/home/reds/ARE/labo02/hps_pio_interface/soft/src/pio_function.c ****     //! TODO : init
  41:/home/reds/ARE/labo02/hps_pio_interface/soft/src/pio_function.c **** }
  57              		.loc 1 41 0
  58 0008 0000A0E1 		nop
  59 000c 00D04BE2 		sub	sp, fp, #0
  60              		.cfi_def_cfa_register 13
  61              		@ sp needed
  62 0010 04B09DE4 		ldr	fp, [sp], #4
  63              		.cfi_restore 11
  64              		.cfi_def_cfa_offset 0
  65 0014 1EFF2FE1 		bx	lr
  66              		.cfi_endproc
  67              	.LFE0:
  69              		.align	2
  70              		.global	Leds_init
  71              		.syntax unified
  72              		.arm
  73              		.fpu softvfp
  75              	Leds_init:
  76              	.LFB1:
  42:/home/reds/ARE/labo02/hps_pio_interface/soft/src/pio_function.c **** 
  43:/home/reds/ARE/labo02/hps_pio_interface/soft/src/pio_function.c **** void Leds_init(void){
  77              		.loc 1 43 0
  78              		.cfi_startproc
  79              		@ Function supports interworking.
  80              		@ args = 0, pretend = 0, frame = 0
  81              		@ frame_needed = 1, uses_anonymous_args = 0
  82 0018 00482DE9 		push	{fp, lr}
  83              		.cfi_def_cfa_offset 8
  84              		.cfi_offset 11, -8
  85              		.cfi_offset 14, -4
  86 001c 04B08DE2 		add	fp, sp, #4
  87              		.cfi_def_cfa 11, 4
  44:/home/reds/ARE/labo02/hps_pio_interface/soft/src/pio_function.c ****     //! TODO : init
  45:/home/reds/ARE/labo02/hps_pio_interface/soft/src/pio_function.c **** 
  46:/home/reds/ARE/labo02/hps_pio_interface/soft/src/pio_function.c ****     // Start value
  47:/home/reds/ARE/labo02/hps_pio_interface/soft/src/pio_function.c ****     Leds_clear(0x3FF);
  88              		.loc 1 47 0
  89 0020 10009FE5 		ldr	r0, .L3
  90 0024 FEFFFFEB 		bl	Leds_clear
  48:/home/reds/ARE/labo02/hps_pio_interface/soft/src/pio_function.c **** }
  91              		.loc 1 48 0
  92 0028 0000A0E1 		nop
  93 002c 04D04BE2 		sub	sp, fp, #4
  94              		.cfi_def_cfa 13, 8
  95              		@ sp needed
  96 0030 0048BDE8 		pop	{fp, lr}
  97              		.cfi_restore 14
  98              		.cfi_restore 11
  99              		.cfi_def_cfa_offset 0
 100 0034 1EFF2FE1 		bx	lr
 101              	.L4:
 102              		.align	2
 103              	.L3:
 104 0038 FF030000 		.word	1023
 105              		.cfi_endproc
 106              	.LFE1:
 108              		.align	2
 109              		.global	Keys_init
 110              		.syntax unified
 111              		.arm
 112              		.fpu softvfp
 114              	Keys_init:
 115              	.LFB2:
  49:/home/reds/ARE/labo02/hps_pio_interface/soft/src/pio_function.c **** 
  50:/home/reds/ARE/labo02/hps_pio_interface/soft/src/pio_function.c **** void Keys_init(void){
 116              		.loc 1 50 0
 117              		.cfi_startproc
 118              		@ Function supports interworking.
 119              		@ args = 0, pretend = 0, frame = 0
 120              		@ frame_needed = 1, uses_anonymous_args = 0
 121              		@ link register save eliminated.
 122 003c 04B02DE5 		str	fp, [sp, #-4]!
 123              		.cfi_def_cfa_offset 4
 124              		.cfi_offset 11, -4
 125 0040 00B08DE2 		add	fp, sp, #0
 126              		.cfi_def_cfa_register 11
  51:/home/reds/ARE/labo02/hps_pio_interface/soft/src/pio_function.c ****     //! TODO : init
  52:/home/reds/ARE/labo02/hps_pio_interface/soft/src/pio_function.c **** }
 127              		.loc 1 52 0
 128 0044 0000A0E1 		nop
 129 0048 00D04BE2 		sub	sp, fp, #0
 130              		.cfi_def_cfa_register 13
 131              		@ sp needed
 132 004c 04B09DE4 		ldr	fp, [sp], #4
 133              		.cfi_restore 11
 134              		.cfi_def_cfa_offset 0
 135 0050 1EFF2FE1 		bx	lr
 136              		.cfi_endproc
 137              	.LFE2:
 139              		.align	2
 140              		.global	Segs7_init
 141              		.syntax unified
 142              		.arm
 143              		.fpu softvfp
 145              	Segs7_init:
 146              	.LFB3:
  53:/home/reds/ARE/labo02/hps_pio_interface/soft/src/pio_function.c **** 
  54:/home/reds/ARE/labo02/hps_pio_interface/soft/src/pio_function.c **** void Segs7_init(void){
 147              		.loc 1 54 0
 148              		.cfi_startproc
 149              		@ Function supports interworking.
 150              		@ args = 0, pretend = 0, frame = 0
 151              		@ frame_needed = 1, uses_anonymous_args = 0
 152 0054 00482DE9 		push	{fp, lr}
 153              		.cfi_def_cfa_offset 8
 154              		.cfi_offset 11, -8
 155              		.cfi_offset 14, -4
 156 0058 04B08DE2 		add	fp, sp, #4
 157              		.cfi_def_cfa 11, 4
  55:/home/reds/ARE/labo02/hps_pio_interface/soft/src/pio_function.c ****     //! TODO : init
  56:/home/reds/ARE/labo02/hps_pio_interface/soft/src/pio_function.c **** 
  57:/home/reds/ARE/labo02/hps_pio_interface/soft/src/pio_function.c ****     // Start value
  58:/home/reds/ARE/labo02/hps_pio_interface/soft/src/pio_function.c ****     Seg7_write(0, 0x00);
 158              		.loc 1 58 0
 159 005c 0010A0E3 		mov	r1, #0
 160 0060 0000A0E3 		mov	r0, #0
 161 0064 FEFFFFEB 		bl	Seg7_write
  59:/home/reds/ARE/labo02/hps_pio_interface/soft/src/pio_function.c ****     Seg7_write(1, 0x00);
 162              		.loc 1 59 0
 163 0068 0010A0E3 		mov	r1, #0
 164 006c 0100A0E3 		mov	r0, #1
 165 0070 FEFFFFEB 		bl	Seg7_write
  60:/home/reds/ARE/labo02/hps_pio_interface/soft/src/pio_function.c ****     Seg7_write(2, 0x01);
 166              		.loc 1 60 0
 167 0074 0110A0E3 		mov	r1, #1
 168 0078 0200A0E3 		mov	r0, #2
 169 007c FEFFFFEB 		bl	Seg7_write
  61:/home/reds/ARE/labo02/hps_pio_interface/soft/src/pio_function.c ****     Seg7_write_hex(3, 0x0);
 170              		.loc 1 61 0
 171 0080 0010A0E3 		mov	r1, #0
 172 0084 0300A0E3 		mov	r0, #3
 173 0088 FEFFFFEB 		bl	Seg7_write_hex
  62:/home/reds/ARE/labo02/hps_pio_interface/soft/src/pio_function.c **** }
 174              		.loc 1 62 0
 175 008c 0000A0E1 		nop
 176 0090 04D04BE2 		sub	sp, fp, #4
 177              		.cfi_def_cfa 13, 8
 178              		@ sp needed
 179 0094 0048BDE8 		pop	{fp, lr}
 180              		.cfi_restore 14
 181              		.cfi_restore 11
 182              		.cfi_def_cfa_offset 0
 183 0098 1EFF2FE1 		bx	lr
 184              		.cfi_endproc
 185              	.LFE3:
 187              		.align	2
 188              		.global	Switchs_read
 189              		.syntax unified
 190              		.arm
 191              		.fpu softvfp
 193              	Switchs_read:
 194              	.LFB4:
  63:/home/reds/ARE/labo02/hps_pio_interface/soft/src/pio_function.c **** 
  64:/home/reds/ARE/labo02/hps_pio_interface/soft/src/pio_function.c **** uint32_t Switchs_read(void){
 195              		.loc 1 64 0
 196              		.cfi_startproc
 197              		@ Function supports interworking.
 198              		@ args = 0, pretend = 0, frame = 0
 199              		@ frame_needed = 1, uses_anonymous_args = 0
 200              		@ link register save eliminated.
 201 009c 04B02DE5 		str	fp, [sp, #-4]!
 202              		.cfi_def_cfa_offset 4
 203              		.cfi_offset 11, -4
 204 00a0 00B08DE2 		add	fp, sp, #0
 205              		.cfi_def_cfa_register 11
  65:/home/reds/ARE/labo02/hps_pio_interface/soft/src/pio_function.c ****     return 0x0; // ( & SWITCHS_BITS) >> SWITCHS_BITS_OFFSET;  //! TODO : read regs!
 206              		.loc 1 65 0
 207 00a4 0030A0E3 		mov	r3, #0
  66:/home/reds/ARE/labo02/hps_pio_interface/soft/src/pio_function.c **** }
 208              		.loc 1 66 0
 209 00a8 0300A0E1 		mov	r0, r3
 210 00ac 00D04BE2 		sub	sp, fp, #0
 211              		.cfi_def_cfa_register 13
 212              		@ sp needed
 213 00b0 04B09DE4 		ldr	fp, [sp], #4
 214              		.cfi_restore 11
 215              		.cfi_def_cfa_offset 0
 216 00b4 1EFF2FE1 		bx	lr
 217              		.cfi_endproc
 218              	.LFE4:
 220              		.align	2
 221              		.global	Leds_write
 222              		.syntax unified
 223              		.arm
 224              		.fpu softvfp
 226              	Leds_write:
 227              	.LFB5:
  67:/home/reds/ARE/labo02/hps_pio_interface/soft/src/pio_function.c **** 
  68:/home/reds/ARE/labo02/hps_pio_interface/soft/src/pio_function.c **** void Leds_write(uint32_t value){
 228              		.loc 1 68 0
 229              		.cfi_startproc
 230              		@ Function supports interworking.
 231              		@ args = 0, pretend = 0, frame = 8
 232              		@ frame_needed = 1, uses_anonymous_args = 0
 233              		@ link register save eliminated.
 234 00b8 04B02DE5 		str	fp, [sp, #-4]!
 235              		.cfi_def_cfa_offset 4
 236              		.cfi_offset 11, -4
 237 00bc 00B08DE2 		add	fp, sp, #0
 238              		.cfi_def_cfa_register 11
 239 00c0 0CD04DE2 		sub	sp, sp, #12
 240 00c4 08000BE5 		str	r0, [fp, #-8]
  69:/home/reds/ARE/labo02/hps_pio_interface/soft/src/pio_function.c ****     if(value){
  70:/home/reds/ARE/labo02/hps_pio_interface/soft/src/pio_function.c ****         // |= LEDS_BITS;  //! TODO : put on regs!
  71:/home/reds/ARE/labo02/hps_pio_interface/soft/src/pio_function.c ****     }else{
  72:/home/reds/ARE/labo02/hps_pio_interface/soft/src/pio_function.c ****         // &= ~LEDS_BITS;  //! TODO : put on regs!
  73:/home/reds/ARE/labo02/hps_pio_interface/soft/src/pio_function.c ****     }
  74:/home/reds/ARE/labo02/hps_pio_interface/soft/src/pio_function.c **** }
 241              		.loc 1 74 0
 242 00c8 0000A0E1 		nop
 243 00cc 00D04BE2 		sub	sp, fp, #0
 244              		.cfi_def_cfa_register 13
 245              		@ sp needed
 246 00d0 04B09DE4 		ldr	fp, [sp], #4
 247              		.cfi_restore 11
 248              		.cfi_def_cfa_offset 0
 249 00d4 1EFF2FE1 		bx	lr
 250              		.cfi_endproc
 251              	.LFE5:
 253              		.align	2
 254              		.global	Leds_set
 255              		.syntax unified
 256              		.arm
 257              		.fpu softvfp
 259              	Leds_set:
 260              	.LFB6:
  75:/home/reds/ARE/labo02/hps_pio_interface/soft/src/pio_function.c **** 
  76:/home/reds/ARE/labo02/hps_pio_interface/soft/src/pio_function.c **** void Leds_set(uint32_t maskleds){
 261              		.loc 1 76 0
 262              		.cfi_startproc
 263              		@ Function supports interworking.
 264              		@ args = 0, pretend = 0, frame = 8
 265              		@ frame_needed = 1, uses_anonymous_args = 0
 266              		@ link register save eliminated.
 267 00d8 04B02DE5 		str	fp, [sp, #-4]!
 268              		.cfi_def_cfa_offset 4
 269              		.cfi_offset 11, -4
 270 00dc 00B08DE2 		add	fp, sp, #0
 271              		.cfi_def_cfa_register 11
 272 00e0 0CD04DE2 		sub	sp, sp, #12
 273 00e4 08000BE5 		str	r0, [fp, #-8]
  77:/home/reds/ARE/labo02/hps_pio_interface/soft/src/pio_function.c ****     // Input check and format
  78:/home/reds/ARE/labo02/hps_pio_interface/soft/src/pio_function.c ****     maskleds <<= LEDS_BITS_OFFSET;
 274              		.loc 1 78 0
 275 00e8 08301BE5 		ldr	r3, [fp, #-8]
 276 00ec 0335A0E1 		lsl	r3, r3, #10
 277 00f0 08300BE5 		str	r3, [fp, #-8]
  79:/home/reds/ARE/labo02/hps_pio_interface/soft/src/pio_function.c ****     maskleds &= LEDS_BITS;
 278              		.loc 1 79 0
 279 00f4 08201BE5 		ldr	r2, [fp, #-8]
 280 00f8 14309FE5 		ldr	r3, .L11
 281 00fc 023003E0 		and	r3, r3, r2
 282 0100 08300BE5 		str	r3, [fp, #-8]
  80:/home/reds/ARE/labo02/hps_pio_interface/soft/src/pio_function.c **** 
  81:/home/reds/ARE/labo02/hps_pio_interface/soft/src/pio_function.c ****     // actual datawriting
  82:/home/reds/ARE/labo02/hps_pio_interface/soft/src/pio_function.c ****     // |= maskleds;  //! TODO : put on regs!
  83:/home/reds/ARE/labo02/hps_pio_interface/soft/src/pio_function.c **** }
 283              		.loc 1 83 0
 284 0104 0000A0E1 		nop
 285 0108 00D04BE2 		sub	sp, fp, #0
 286              		.cfi_def_cfa_register 13
 287              		@ sp needed
 288 010c 04B09DE4 		ldr	fp, [sp], #4
 289              		.cfi_restore 11
 290              		.cfi_def_cfa_offset 0
 291 0110 1EFF2FE1 		bx	lr
 292              	.L12:
 293              		.align	2
 294              	.L11:
 295 0114 00FC0F00 		.word	1047552
 296              		.cfi_endproc
 297              	.LFE6:
 299              		.align	2
 300              		.global	Leds_clear
 301              		.syntax unified
 302              		.arm
 303              		.fpu softvfp
 305              	Leds_clear:
 306              	.LFB7:
  84:/home/reds/ARE/labo02/hps_pio_interface/soft/src/pio_function.c **** 
  85:/home/reds/ARE/labo02/hps_pio_interface/soft/src/pio_function.c **** void Leds_clear(uint32_t maskleds){
 307              		.loc 1 85 0
 308              		.cfi_startproc
 309              		@ Function supports interworking.
 310              		@ args = 0, pretend = 0, frame = 8
 311              		@ frame_needed = 1, uses_anonymous_args = 0
 312              		@ link register save eliminated.
 313 0118 04B02DE5 		str	fp, [sp, #-4]!
 314              		.cfi_def_cfa_offset 4
 315              		.cfi_offset 11, -4
 316 011c 00B08DE2 		add	fp, sp, #0
 317              		.cfi_def_cfa_register 11
 318 0120 0CD04DE2 		sub	sp, sp, #12
 319 0124 08000BE5 		str	r0, [fp, #-8]
  86:/home/reds/ARE/labo02/hps_pio_interface/soft/src/pio_function.c ****     // Input check and format
  87:/home/reds/ARE/labo02/hps_pio_interface/soft/src/pio_function.c ****     maskleds <<= LEDS_BITS_OFFSET;
 320              		.loc 1 87 0
 321 0128 08301BE5 		ldr	r3, [fp, #-8]
 322 012c 0335A0E1 		lsl	r3, r3, #10
 323 0130 08300BE5 		str	r3, [fp, #-8]
  88:/home/reds/ARE/labo02/hps_pio_interface/soft/src/pio_function.c ****     maskleds &= LEDS_BITS;
 324              		.loc 1 88 0
 325 0134 08201BE5 		ldr	r2, [fp, #-8]
 326 0138 14309FE5 		ldr	r3, .L14
 327 013c 023003E0 		and	r3, r3, r2
 328 0140 08300BE5 		str	r3, [fp, #-8]
  89:/home/reds/ARE/labo02/hps_pio_interface/soft/src/pio_function.c **** 
  90:/home/reds/ARE/labo02/hps_pio_interface/soft/src/pio_function.c ****     // actual datawriting
  91:/home/reds/ARE/labo02/hps_pio_interface/soft/src/pio_function.c ****     // &= ~(maskleds);  //! TODO : put on regs!
  92:/home/reds/ARE/labo02/hps_pio_interface/soft/src/pio_function.c **** }
 329              		.loc 1 92 0
 330 0144 0000A0E1 		nop
 331 0148 00D04BE2 		sub	sp, fp, #0
 332              		.cfi_def_cfa_register 13
 333              		@ sp needed
 334 014c 04B09DE4 		ldr	fp, [sp], #4
 335              		.cfi_restore 11
 336              		.cfi_def_cfa_offset 0
 337 0150 1EFF2FE1 		bx	lr
 338              	.L15:
 339              		.align	2
 340              	.L14:
 341 0154 00FC0F00 		.word	1047552
 342              		.cfi_endproc
 343              	.LFE7:
 345              		.align	2
 346              		.global	Leds_toggle
 347              		.syntax unified
 348              		.arm
 349              		.fpu softvfp
 351              	Leds_toggle:
 352              	.LFB8:
  93:/home/reds/ARE/labo02/hps_pio_interface/soft/src/pio_function.c **** 
  94:/home/reds/ARE/labo02/hps_pio_interface/soft/src/pio_function.c **** void Leds_toggle(uint32_t maskleds){
 353              		.loc 1 94 0
 354              		.cfi_startproc
 355              		@ Function supports interworking.
 356              		@ args = 0, pretend = 0, frame = 8
 357              		@ frame_needed = 1, uses_anonymous_args = 0
 358              		@ link register save eliminated.
 359 0158 04B02DE5 		str	fp, [sp, #-4]!
 360              		.cfi_def_cfa_offset 4
 361              		.cfi_offset 11, -4
 362 015c 00B08DE2 		add	fp, sp, #0
 363              		.cfi_def_cfa_register 11
 364 0160 0CD04DE2 		sub	sp, sp, #12
 365 0164 08000BE5 		str	r0, [fp, #-8]
  95:/home/reds/ARE/labo02/hps_pio_interface/soft/src/pio_function.c ****     // Input check and format
  96:/home/reds/ARE/labo02/hps_pio_interface/soft/src/pio_function.c ****     maskleds <<= LEDS_BITS_OFFSET;
 366              		.loc 1 96 0
 367 0168 08301BE5 		ldr	r3, [fp, #-8]
 368 016c 0335A0E1 		lsl	r3, r3, #10
 369 0170 08300BE5 		str	r3, [fp, #-8]
  97:/home/reds/ARE/labo02/hps_pio_interface/soft/src/pio_function.c ****     maskleds &= LEDS_BITS;
 370              		.loc 1 97 0
 371 0174 08201BE5 		ldr	r2, [fp, #-8]
 372 0178 14309FE5 		ldr	r3, .L17
 373 017c 023003E0 		and	r3, r3, r2
 374 0180 08300BE5 		str	r3, [fp, #-8]
  98:/home/reds/ARE/labo02/hps_pio_interface/soft/src/pio_function.c **** 
  99:/home/reds/ARE/labo02/hps_pio_interface/soft/src/pio_function.c ****     // actual datawriting
 100:/home/reds/ARE/labo02/hps_pio_interface/soft/src/pio_function.c ****     // ^= maskleds;  //! TODO : put on regs!
 101:/home/reds/ARE/labo02/hps_pio_interface/soft/src/pio_function.c **** }
 375              		.loc 1 101 0
 376 0184 0000A0E1 		nop
 377 0188 00D04BE2 		sub	sp, fp, #0
 378              		.cfi_def_cfa_register 13
 379              		@ sp needed
 380 018c 04B09DE4 		ldr	fp, [sp], #4
 381              		.cfi_restore 11
 382              		.cfi_def_cfa_offset 0
 383 0190 1EFF2FE1 		bx	lr
 384              	.L18:
 385              		.align	2
 386              	.L17:
 387 0194 00FC0F00 		.word	1047552
 388              		.cfi_endproc
 389              	.LFE8:
 391              		.align	2
 392              		.global	Key_read
 393              		.syntax unified
 394              		.arm
 395              		.fpu softvfp
 397              	Key_read:
 398              	.LFB9:
 102:/home/reds/ARE/labo02/hps_pio_interface/soft/src/pio_function.c **** 
 103:/home/reds/ARE/labo02/hps_pio_interface/soft/src/pio_function.c **** bool Key_read(int key_number){
 399              		.loc 1 103 0
 400              		.cfi_startproc
 401              		@ Function supports interworking.
 402              		@ args = 0, pretend = 0, frame = 8
 403              		@ frame_needed = 1, uses_anonymous_args = 0
 404              		@ link register save eliminated.
 405 0198 04B02DE5 		str	fp, [sp, #-4]!
 406              		.cfi_def_cfa_offset 4
 407              		.cfi_offset 11, -4
 408 019c 00B08DE2 		add	fp, sp, #0
 409              		.cfi_def_cfa_register 11
 410 01a0 0CD04DE2 		sub	sp, sp, #12
 411 01a4 08000BE5 		str	r0, [fp, #-8]
 104:/home/reds/ARE/labo02/hps_pio_interface/soft/src/pio_function.c **** #ifdef CHECK_ERRORS
 105:/home/reds/ARE/labo02/hps_pio_interface/soft/src/pio_function.c ****     // Sanity checks / guard clauses
 106:/home/reds/ARE/labo02/hps_pio_interface/soft/src/pio_function.c ****     if(key_number > MAX_KEY || key_number < 0){
 107:/home/reds/ARE/labo02/hps_pio_interface/soft/src/pio_function.c ****         printf("Error in key choice (%d does not satisfie 0 <= X <= %d)\n", key_number, MAX_KEY);
 108:/home/reds/ARE/labo02/hps_pio_interface/soft/src/pio_function.c ****         return false;
 109:/home/reds/ARE/labo02/hps_pio_interface/soft/src/pio_function.c ****     }
 110:/home/reds/ARE/labo02/hps_pio_interface/soft/src/pio_function.c **** #endif /* CHECK_ERRORS */
 111:/home/reds/ARE/labo02/hps_pio_interface/soft/src/pio_function.c **** 
 112:/home/reds/ARE/labo02/hps_pio_interface/soft/src/pio_function.c ****     // actual data writing
 113:/home/reds/ARE/labo02/hps_pio_interface/soft/src/pio_function.c ****     return false; // (bool)( ( >> (KEY_BITS_OFFSET + key_number)) & (uint32_t)0x1 );  //! TODO : re
 412              		.loc 1 113 0
 413 01a8 0030A0E3 		mov	r3, #0
 114:/home/reds/ARE/labo02/hps_pio_interface/soft/src/pio_function.c **** }
 414              		.loc 1 114 0
 415 01ac 0300A0E1 		mov	r0, r3
 416 01b0 00D04BE2 		sub	sp, fp, #0
 417              		.cfi_def_cfa_register 13
 418              		@ sp needed
 419 01b4 04B09DE4 		ldr	fp, [sp], #4
 420              		.cfi_restore 11
 421              		.cfi_def_cfa_offset 0
 422 01b8 1EFF2FE1 		bx	lr
 423              		.cfi_endproc
 424              	.LFE9:
 426              		.align	2
 427              		.global	Seg7_write
 428              		.syntax unified
 429              		.arm
 430              		.fpu softvfp
 432              	Seg7_write:
 433              	.LFB10:
 115:/home/reds/ARE/labo02/hps_pio_interface/soft/src/pio_function.c **** 
 116:/home/reds/ARE/labo02/hps_pio_interface/soft/src/pio_function.c **** void Seg7_write(int seg7_number, uint32_t value){
 434              		.loc 1 116 0
 435              		.cfi_startproc
 436              		@ Function supports interworking.
 437              		@ args = 0, pretend = 0, frame = 16
 438              		@ frame_needed = 1, uses_anonymous_args = 0
 439              		@ link register save eliminated.
 440 01bc 04B02DE5 		str	fp, [sp, #-4]!
 441              		.cfi_def_cfa_offset 4
 442              		.cfi_offset 11, -4
 443 01c0 00B08DE2 		add	fp, sp, #0
 444              		.cfi_def_cfa_register 11
 445 01c4 14D04DE2 		sub	sp, sp, #20
 446 01c8 10000BE5 		str	r0, [fp, #-16]
 447 01cc 14100BE5 		str	r1, [fp, #-20]
 117:/home/reds/ARE/labo02/hps_pio_interface/soft/src/pio_function.c **** #ifdef CHECK_ERRORS
 118:/home/reds/ARE/labo02/hps_pio_interface/soft/src/pio_function.c ****     // Sanity checks / guard clauses
 119:/home/reds/ARE/labo02/hps_pio_interface/soft/src/pio_function.c ****     if(seg7_number > MAX_HEX || seg7_number < 0){
 120:/home/reds/ARE/labo02/hps_pio_interface/soft/src/pio_function.c ****         printf("Error in 7 seg choice (%d does not satisfie 0 <= X <= %d)\n", seg7_number, MAX_HEX)
 121:/home/reds/ARE/labo02/hps_pio_interface/soft/src/pio_function.c ****         return;
 122:/home/reds/ARE/labo02/hps_pio_interface/soft/src/pio_function.c ****     }
 123:/home/reds/ARE/labo02/hps_pio_interface/soft/src/pio_function.c ****     if(value > 0xFF){
 124:/home/reds/ARE/labo02/hps_pio_interface/soft/src/pio_function.c ****         printf("Invalid 7 seg value (0x%"PRIX32" > 0xFF)\n", value);
 125:/home/reds/ARE/labo02/hps_pio_interface/soft/src/pio_function.c ****         return;
 126:/home/reds/ARE/labo02/hps_pio_interface/soft/src/pio_function.c ****     }
 127:/home/reds/ARE/labo02/hps_pio_interface/soft/src/pio_function.c **** #endif /* CHECK_ERRORS */
 128:/home/reds/ARE/labo02/hps_pio_interface/soft/src/pio_function.c **** 
 129:/home/reds/ARE/labo02/hps_pio_interface/soft/src/pio_function.c ****     // actual data writing
 130:/home/reds/ARE/labo02/hps_pio_interface/soft/src/pio_function.c ****     uint32_t out = (~value) << (HEX_BITS_OFFSET * seg7_number); // Active low!
 448              		.loc 1 130 0
 449 01d0 14301BE5 		ldr	r3, [fp, #-20]
 450 01d4 0310E0E1 		mvn	r1, r3
 451 01d8 10201BE5 		ldr	r2, [fp, #-16]
 452 01dc 0230A0E1 		mov	r3, r2
 453 01e0 8331A0E1 		lsl	r3, r3, #3
 454 01e4 023043E0 		sub	r3, r3, r2
 455 01e8 1133A0E1 		lsl	r3, r1, r3
 456 01ec 08300BE5 		str	r3, [fp, #-8]
 131:/home/reds/ARE/labo02/hps_pio_interface/soft/src/pio_function.c ****     // |= out;  //! TODO : put on regs!
 132:/home/reds/ARE/labo02/hps_pio_interface/soft/src/pio_function.c ****     // &= ~out; 
 133:/home/reds/ARE/labo02/hps_pio_interface/soft/src/pio_function.c **** }
 457              		.loc 1 133 0
 458 01f0 0000A0E1 		nop
 459 01f4 00D04BE2 		sub	sp, fp, #0
 460              		.cfi_def_cfa_register 13
 461              		@ sp needed
 462 01f8 04B09DE4 		ldr	fp, [sp], #4
 463              		.cfi_restore 11
 464              		.cfi_def_cfa_offset 0
 465 01fc 1EFF2FE1 		bx	lr
 466              		.cfi_endproc
 467              	.LFE10:
 469              		.align	2
 470              		.global	Seg7_write_hex
 471              		.syntax unified
 472              		.arm
 473              		.fpu softvfp
 475              	Seg7_write_hex:
 476              	.LFB11:
 134:/home/reds/ARE/labo02/hps_pio_interface/soft/src/pio_function.c **** 
 135:/home/reds/ARE/labo02/hps_pio_interface/soft/src/pio_function.c **** void Seg7_write_hex(int seg7_number, uint32_t value){
 477              		.loc 1 135 0
 478              		.cfi_startproc
 479              		@ Function supports interworking.
 480              		@ args = 0, pretend = 0, frame = 8
 481              		@ frame_needed = 1, uses_anonymous_args = 0
 482 0200 00482DE9 		push	{fp, lr}
 483              		.cfi_def_cfa_offset 8
 484              		.cfi_offset 11, -8
 485              		.cfi_offset 14, -4
 486 0204 04B08DE2 		add	fp, sp, #4
 487              		.cfi_def_cfa 11, 4
 488 0208 08D04DE2 		sub	sp, sp, #8
 489 020c 08000BE5 		str	r0, [fp, #-8]
 490 0210 0C100BE5 		str	r1, [fp, #-12]
 136:/home/reds/ARE/labo02/hps_pio_interface/soft/src/pio_function.c **** #ifdef CHECK_ERRORS
 137:/home/reds/ARE/labo02/hps_pio_interface/soft/src/pio_function.c ****     // Sanity checks / guard clauses
 138:/home/reds/ARE/labo02/hps_pio_interface/soft/src/pio_function.c ****     if(value > 0xF){
 139:/home/reds/ARE/labo02/hps_pio_interface/soft/src/pio_function.c ****         printf("Invalid 7 seg value (0x%"PRIX32" > 0xF)\n", value);
 140:/home/reds/ARE/labo02/hps_pio_interface/soft/src/pio_function.c ****         return;
 141:/home/reds/ARE/labo02/hps_pio_interface/soft/src/pio_function.c ****     }
 142:/home/reds/ARE/labo02/hps_pio_interface/soft/src/pio_function.c **** #endif /* CHECK_ERRORS */
 143:/home/reds/ARE/labo02/hps_pio_interface/soft/src/pio_function.c **** 
 144:/home/reds/ARE/labo02/hps_pio_interface/soft/src/pio_function.c ****     // actual data writing
 145:/home/reds/ARE/labo02/hps_pio_interface/soft/src/pio_function.c ****     Seg7_write(seg7_number, (uint32_t)VAL2SEG[value]);
 491              		.loc 1 145 0
 492 0214 24209FE5 		ldr	r2, .L23
 493 0218 0C301BE5 		ldr	r3, [fp, #-12]
 494 021c 033082E0 		add	r3, r2, r3
 495 0220 0030D3E5 		ldrb	r3, [r3]	@ zero_extendqisi2
 496 0224 0310A0E1 		mov	r1, r3
 497 0228 08001BE5 		ldr	r0, [fp, #-8]
 498 022c FEFFFFEB 		bl	Seg7_write
 146:/home/reds/ARE/labo02/hps_pio_interface/soft/src/pio_function.c **** }
 499              		.loc 1 146 0
 500 0230 0000A0E1 		nop
 501 0234 04D04BE2 		sub	sp, fp, #4
 502              		.cfi_def_cfa 13, 8
 503              		@ sp needed
 504 0238 0048BDE8 		pop	{fp, lr}
 505              		.cfi_restore 14
 506              		.cfi_restore 11
 507              		.cfi_def_cfa_offset 0
 508 023c 1EFF2FE1 		bx	lr
 509              	.L24:
 510              		.align	2
 511              	.L23:
 512 0240 00000000 		.word	VAL2SEG
 513              		.cfi_endproc
 514              	.LFE11:
 516              	.Letext0:
 517              		.file 2 "/opt/intelFPGA/18.1/University_Program/Monitor_Program/arm_tools/baremetal/arm-altera-eab
 518              		.file 3 "/opt/intelFPGA/18.1/University_Program/Monitor_Program/arm_tools/baremetal/arm-altera-eab
 519              		.file 4 "/home/reds/ARE/labo02/hps_pio_interface/soft/src/hex_val.h"
DEFINED SYMBOLS
                            *ABS*:00000000 pio_function.c
     /tmp/ccqG9sp8.s:16     .rodata:00000000 $d
     /tmp/ccqG9sp8.s:19     .rodata:00000000 VAL2SEG
     /tmp/ccqG9sp8.s:37     .text:00000000 $a
     /tmp/ccqG9sp8.s:43     .text:00000000 Switchs_init
     /tmp/ccqG9sp8.s:75     .text:00000018 Leds_init
     /tmp/ccqG9sp8.s:305    .text:00000118 Leds_clear
     /tmp/ccqG9sp8.s:104    .text:00000038 $d
     /tmp/ccqG9sp8.s:108    .text:0000003c $a
     /tmp/ccqG9sp8.s:114    .text:0000003c Keys_init
     /tmp/ccqG9sp8.s:145    .text:00000054 Segs7_init
     /tmp/ccqG9sp8.s:432    .text:000001bc Seg7_write
     /tmp/ccqG9sp8.s:475    .text:00000200 Seg7_write_hex
     /tmp/ccqG9sp8.s:193    .text:0000009c Switchs_read
     /tmp/ccqG9sp8.s:226    .text:000000b8 Leds_write
     /tmp/ccqG9sp8.s:259    .text:000000d8 Leds_set
     /tmp/ccqG9sp8.s:295    .text:00000114 $d
     /tmp/ccqG9sp8.s:299    .text:00000118 $a
     /tmp/ccqG9sp8.s:341    .text:00000154 $d
     /tmp/ccqG9sp8.s:345    .text:00000158 $a
     /tmp/ccqG9sp8.s:351    .text:00000158 Leds_toggle
     /tmp/ccqG9sp8.s:387    .text:00000194 $d
     /tmp/ccqG9sp8.s:391    .text:00000198 $a
     /tmp/ccqG9sp8.s:397    .text:00000198 Key_read
     /tmp/ccqG9sp8.s:512    .text:00000240 $d
                     .debug_frame:00000010 $d

NO UNDEFINED SYMBOLS
